<?xml version="1.0" encoding="UTF-8"?>
<svg width="24px" height="8px" viewBox="0 0 24 8" version="1.1" xmlns="http://www.w3.org/2000/svg" xmlns:xlink="http://www.w3.org/1999/xlink">
    <!-- Generator: Sketch 53.2 (72643) - https://sketchapp.com -->
    <title>Group 12</title>
    <desc>Created with Sketch.</desc>
    <g id="Symbols" stroke="none" stroke-width="1" fill="none" fill-rule="evenodd">
        <g id="ic_row_white" transform="translate(0.000000, -8.000000)" fill="#FFFFFF">
            <g id="Group-12" transform="translate(0.000000, 8.000000)">
                <polygon id="Triangle" transform="translate(21.500000, 4.000000) rotate(-270.000000) translate(-21.500000, -4.000000) " points="21.5 1.5 25.5 6.5 17.5 6.5"></polygon>
                <rect id="Rectangle" x="0" y="3" width="22" height="2"></rect>
            </g>
        </g>
    </g>
</svg>