<?xml version="1.0" encoding="UTF-8"?>
<svg width="13px" height="8px" viewBox="0 0 13 8" version="1.1" xmlns="http://www.w3.org/2000/svg" xmlns:xlink="http://www.w3.org/1999/xlink">
    <!-- Generator: Sketch 53.2 (72643) - https://sketchapp.com -->
    <title>Path 5</title>
    <desc>Created with Sketch.</desc>
    <g id="Symbols" stroke="none" stroke-width="1" fill="none" fill-rule="evenodd" stroke-linecap="round" stroke-linejoin="round">
        <g id="ic_back-copy-5" transform="translate(-6.000000, -8.000000)" fill-rule="nonzero" stroke="#FFFFFF" stroke-width="1.5">
            <polyline id="Path-5" transform="translate(12.500000, 12.000000) rotate(-90.000000) translate(-12.500000, -12.000000) " points="15 7 10 11.9944128 15 17"></polyline>
        </g>
    </g>
</svg>