<?xml version="1.0" encoding="UTF-8"?>
<svg width="18px" height="16px" viewBox="0 0 18 16" version="1.1" xmlns="http://www.w3.org/2000/svg" xmlns:xlink="http://www.w3.org/1999/xlink">
    <!-- Generator: Sketch 53.2 (72643) - https://sketchapp.com -->
    <title>Shape</title>
    <desc>Created with Sketch.</desc>
    <g id="Symbols" stroke="none" stroke-width="1" fill="none" fill-rule="evenodd">
        <g id="header/ic_love-copy" transform="translate(-3.000000, -4.000000)" fill="#C7C7CC" fill-rule="nonzero">
            <path d="M12.0001197,19 C12.0059999,19 12.0067328,19.0001854 11.997242,19.00638 C12.0864477,18.9493727 12.212283,18.8684218 12.3708491,18.7654356 C12.63938,18.5910289 12.9055679,18.4157007 13.1533601,18.2490899 C13.2042683,18.2148252 13.2042683,18.2148252 13.2549622,18.180557 C13.488067,18.0228016 13.6886265,17.8833394 13.8476052,17.7678723 C18.5512262,14.3539637 20.6991799,10.5104472 19.7968756,7.56477921 C19.3227364,6.01654694 18.0327114,5 16.6009598,5 C15.6559265,5 14.6886363,5.38289665 13.9626727,6.04878588 C13.5482751,6.42883992 13.1701148,7.06238773 12.9185786,7.64552741 C12.5713463,8.45052055 11.4300404,8.45083805 11.0823603,7.64603822 C10.8317576,7.06595027 10.4548322,6.43165543 10.0375047,6.04872896 C9.31164398,5.38291203 8.34397633,5 7.39880073,5 C5.96729109,5 4.67724723,6.01654886 4.20310566,7.56459329 C3.30080665,10.5102438 5.44882745,14.3540027 10.1523948,17.7678723 C10.3114382,17.8834272 10.5119251,18.0228808 10.7449534,18.1806267 C10.7956868,18.2149307 10.7956868,18.2149307 10.8466352,18.2492312 C11.0943468,18.41583 11.3604548,18.5911462 11.6288727,18.7655167 C11.7903817,18.8704366 11.9178095,18.9524095 12.0087117,19.0105338 C11.9922262,18.9999958 11.9927098,19 12.0001197,19 Z M11.4155276,6.1630928 C11.2924967,6.39104647 11.1815566,6.62290375 11.0821398,6.85338303 L12.0003592,7.24945522 L12.9183581,6.85287222 C12.8280771,6.64389253 12.7161618,6.41135712 12.5821781,6.16670552 C12.777792,5.86782328 13.014912,5.56112261 13.2867649,5.31179971 C14.1955344,4.47823198 15.4033956,4 16.6009598,4 C18.48507,4 20.1536618,5.31476702 20.7530426,7.27195734 C21.8074067,10.7140406 19.4455639,14.9404837 14.4349993,18.5771733 C13.7585109,19.0685109 12.575554,19.8234449 12.5255058,19.8555908 C12.3803901,19.9488138 12.1936074,20 12.0001197,20 C11.807111,20 11.6200889,19.9488138 11.4740152,19.8555908 C11.4239671,19.8234449 10.2412497,19.0685109 9.56500066,18.5771733 C4.55443606,14.9404837 2.19259326,10.7137934 3.24695743,7.27171007 C3.8463382,5.31476702 5.51492997,4 7.39880073,4 C8.59612548,4 9.80446561,4.4779847 10.7134746,5.31179971 C10.9842599,5.56026365 11.2206102,5.86582267 11.4155276,6.1630928 Z" id="Shape"></path>
        </g>
    </g>
</svg>