<?xml version="1.0" encoding="UTF-8"?>
<svg width="20px" height="20px" viewBox="0 0 20 20" version="1.1" xmlns="http://www.w3.org/2000/svg" xmlns:xlink="http://www.w3.org/1999/xlink">
    <!-- Generator: Sketch 53.2 (72643) - https://sketchapp.com -->
    <title>Combined Shape</title>
    <desc>Created with Sketch.</desc>
    <g id="Symbols" stroke="none" stroke-width="1" fill="none" fill-rule="evenodd">
        <g id="ic_map" transform="translate(-2.000000, -2.000000)" fill="#0E74B9">
            <g id="Group" transform="translate(2.000000, 2.000000)">
                <path d="M14.039,14.3356667 C17.5486667,14.749 20,15.913 20,17.1666667 C20,18.5746667 16.565,20 10,20 C3.435,20 0,18.5746667 0,17.1666667 C0,15.913 2.45133333,14.749 5.961,14.3356667 C6.144,14.3126667 6.30933333,14.4446667 6.331,14.6276667 C6.35233333,14.8103333 6.22166667,14.9763333 6.039,14.9976667 C2.53366667,15.4103333 0.666666667,16.5223333 0.666666667,17.1666667 C0.666666667,18.0713333 4.21733333,19.3333333 10,19.3333333 C15.7826667,19.3333333 19.3333333,18.0713333 19.3333333,17.1666667 C19.3333333,16.5223333 17.4663333,15.4103333 13.961,14.9976667 C13.7783333,14.9763333 13.6476667,14.8106667 13.669,14.6276667 C13.6903333,14.4446667 13.8556667,14.3133333 14.039,14.3356667 Z M9.941,18.2523333 L4.81966667,10.8563333 C2.90933333,8.30933333 3.18666667,4.10633333 5.421,1.87233333 C6.62833333,0.665 8.23366667,-2.04281037e-13 9.941,-2.04281037e-13 C11.6483333,-2.04281037e-13 13.2536667,0.665 14.461,1.87266667 C16.6953333,4.10666667 16.9726667,8.30966667 15.0546667,10.8666667 L9.941,18.2523333 Z M10,4 C8.71333333,4 7.66666667,5.047 7.66666667,6.33333333 C7.66666667,7.61966667 8.71333333,8.66666667 10,8.66666667 C11.2866667,8.66666667 12.3333333,7.61966667 12.3333333,6.33333333 C12.3333333,5.047 11.2866667,4 10,4 Z" id="Combined-Shape"></path>
            </g>
        </g>
    </g>
</svg>